Id,fold
1,1
2,2
3,3
4,4
5,1
6,2
7,3
8,4
9,1
10,2
11,3
12,4
13,1
14,2
15,3
16,4
17,1
18,2
19,3
20,4
21,1
22,2
23,3
24,4
25,1
26,2
27,3
28,4
29,1
30,2
31,3
32,4
33,1
34,2
35,3
36,4
37,1
38,2
39,3
40,4
41,1
42,2
43,3
44,4
45,1
46,2
47,3
48,4
49,1
50,2
51,3
52,4
53,1
54,2
55,3
56,4
57,1
58,2
59,3
60,4
61,1
62,2
63,3
64,4
65,1
66,2
67,3
68,4
69,1
70,2
71,3
72,4
73,1
74,2
75,3
76,4
77,1
78,2
79,3
80,4
81,1
82,2
83,3
84,4
85,1
86,2
87,3
88,4
89,1
90,2
91,3
92,4
93,1
94,2
95,3
96,4
97,1
98,2
99,3
100,4
101,1
102,2
103,3
104,4
105,1
106,2
107,3
108,4
109,1
110,2
111,3
112,4
113,1
114,2
115,3
116,4
117,1
118,2
119,3
120,4
